SampleID	Confidence_Value_CD	Confidence_Value_nonIBD
Sample_001	0.822008	0.177992
Sample_002	0.522763	0.477237
Sample_003	0.027213	0.972787
Sample_004	0.95945	0.04055
Sample_005	0.577783	0.422217
Sample_006	0.020215	0.979785
Sample_007	0.327936	0.672064
Sample_008	0.012564	0.987436
Sample_009	0.327936	0.672064
Sample_010	0.243976	0.756024
Sample_011	0.027644	0.972356
Sample_012	0.02399	0.97601
Sample_013	0.327936	0.672064
Sample_014	0.928439	0.071561
Sample_015	0.784733	0.215267
Sample_016	0.998588	0.00141199999999997
Sample_017	0.385191	0.614809
Sample_018	0.503464	0.496536
Sample_019	0.327936	0.672064
Sample_020	0.018935	0.981065
Sample_021	0.464655	0.535345
Sample_022	0.257895	0.742105
Sample_023	0.327936	0.672064
Sample_024	0.927615	0.072385
Sample_025	0.232403	0.767597
Sample_026	0.506363	0.493637
Sample_027	0.128039	0.871961
Sample_028	0.129565	0.870435
Sample_029	0.333247	0.666753
Sample_030	0.18141	0.81859
Sample_031	0.015408	0.984592
Sample_032	0.285932	0.714068
Sample_033	0.770245	0.229755
Sample_034	0.016084	0.983916
Sample_035	0.535632	0.464368
Sample_036	0.666324	0.333676
Sample_037	0.817153	0.182847
Sample_038	0.23112	0.76888
Sample_039	0.691703	0.308297
Sample_040	0.000166	0.999834
Sample_041	0.327936	0.672064
Sample_042	0.050037	0.949963
Sample_043	0.327936	0.672064
Sample_044	0.018423	0.981577
Sample_045	0.023573	0.976427
Sample_046	0.981784	0.018216
Sample_047	0.367715	0.632285
Sample_048	0.005349	0.994651
Sample_049	0.134273	0.865727
Sample_050	0.181681	0.818319
Sample_051	0.203883	0.796117
Sample_052	0.426218	0.573782
Sample_053	0.720631	0.279369
Sample_054	0.025621	0.974379
Sample_055	0.327936	0.672064
Sample_056	0.327942	0.672058
Sample_057	0.011226	0.988774
Sample_058	0.375512	0.624488
Sample_059	0.009892	0.990108
Sample_060	0.11975	0.88025
Sample_061	0.03719	0.96281
Sample_062	0.64647	0.35353
Sample_063	0.005248	0.994752
Sample_064	0.002107	0.997893
Sample_065	0.619603	0.380397
Sample_066	0.327936	0.672064
Sample_067	0.018543	0.981457
Sample_068	0.030741	0.969259
Sample_069	0.400865	0.599135
Sample_070	0.327936	0.672064
Sample_071	0.267185	0.732815
Sample_072	0.381239	0.618761
Sample_073	0.058723	0.941277
Sample_074	0.001583	0.998417
Sample_075	0.327947	0.672053
Sample_076	0.011878	0.988122
Sample_077	0.318771	0.681229
Sample_078	0.084089	0.915911
Sample_079	0.013569	0.986431
Sample_080	0.046762	0.953238
Sample_081	0.015044	0.984956
Sample_082	0.367541	0.632459
Sample_083	0.103939	0.896061
Sample_084	0.06737	0.93263
Sample_085	0.344802	0.655198
Sample_086	0.142593	0.857407
Sample_087	0.004061	0.995939
Sample_088	0.920166	0.079834
Sample_089	0.342298	0.657702
Sample_090	0.267968	0.732032
Sample_091	0.327409	0.672591
Sample_092	0.000581	0.999419
Sample_093	0.632793	0.367207
Sample_094	0.003243	0.996757
Sample_095	0.998107	0.00189300000000003
Sample_096	0.170095	0.829905
Sample_097	0.773122	0.226878
Sample_098	0.013133	0.986867
Sample_099	0.327936	0.672064
Sample_100	0.327936	0.672064
Sample_101	0.327936	0.672064
Sample_102	0.816031	0.183969
Sample_103	0.327936	0.672064
Sample_104	0.036252	0.963748
Sample_105	0.361785	0.638215
