SampleID	Confidence_Value_UC	Confidence_Value_nonIBD
Sample_001	0.156	0.844
Sample_002	0.426	0.574
Sample_003	0.110	0.890
Sample_004	0.510	0.490
Sample_005	0.114	0.886
Sample_006	0.082	0.918
Sample_007	0.148	0.852
Sample_008	0.048	0.952
Sample_009	0.460	0.540
Sample_010	0.118	0.882
Sample_011	0.038	0.962
Sample_012	0.094	0.906
Sample_013	0.124	0.876
Sample_014	0.408	0.592
Sample_015	0.034	0.966
Sample_016	0.482	0.518
Sample_017	0.102	0.898
Sample_018	0.048	0.952
Sample_019	0.188	0.812
Sample_020	0.048	0.952
Sample_021	0.228	0.772
Sample_022	0.118	0.882
Sample_023	0.218	0.782
Sample_024	0.506	0.494
Sample_025	0.112	0.888
Sample_026	0.126	0.874
Sample_027	0.078	0.922
Sample_028	0.110	0.890
Sample_029	0.088	0.912
Sample_030	0.072	0.928
Sample_031	0.134	0.866
Sample_032	0.210	0.790
Sample_033	0.194	0.806
Sample_034	0.144	0.856
Sample_035	0.106	0.894
Sample_036	0.370	0.630
Sample_037	0.048	0.952
Sample_038	0.112	0.888
Sample_039	0.136	0.864
Sample_040	0.062	0.938
Sample_041	0.422	0.578
Sample_042	0.148	0.852
Sample_043	0.146	0.854
Sample_044	0.016	0.984
Sample_045	0.094	0.906
Sample_046	0.496	0.504
Sample_047	0.138	0.862
Sample_048	0.056	0.944
Sample_049	0.336	0.664
Sample_050	0.244	0.756
Sample_051	0.052	0.948
Sample_052	0.134	0.866
Sample_053	0.116	0.884
Sample_054	0.136	0.864
Sample_055	0.200	0.800
Sample_056	0.152	0.848
Sample_057	0.156	0.844
Sample_058	0.086	0.914
Sample_059	0.156	0.844
Sample_060	0.024	0.976
Sample_061	0.114	0.886
Sample_062	0.136	0.864
Sample_063	0.046	0.954
Sample_064	0.118	0.882
Sample_065	0.052	0.948
Sample_066	0.120	0.880
Sample_067	0.304	0.696
Sample_068	0.056	0.944
Sample_069	0.068	0.932
Sample_070	0.124	0.876
Sample_071	0.148	0.852
Sample_072	0.294	0.706
Sample_073	0.042	0.958
Sample_074	0.068	0.932
Sample_075	0.198	0.802
Sample_076	0.210	0.790
Sample_077	0.138	0.862
Sample_078	0.080	0.920
Sample_079	0.058	0.942
Sample_080	0.050	0.950
Sample_081	0.108	0.892
Sample_082	0.136	0.864
Sample_083	0.058	0.942
Sample_084	0.024	0.976
Sample_085	0.138	0.862
Sample_086	0.188	0.812
Sample_087	0.054	0.946
Sample_088	0.424	0.576
Sample_089	0.408	0.592
Sample_090	0.206	0.794
Sample_091	0.126	0.874
Sample_092	0.050	0.950
Sample_093	0.288	0.712
Sample_094	0.146	0.854
Sample_095	0.226	0.774
Sample_096	0.190	0.810
Sample_097	0.034	0.966
Sample_098	0.068	0.932
Sample_099	0.340	0.660
Sample_100	0.404	0.596
Sample_101	0.216	0.784
Sample_102	0.214	0.786
Sample_103	0.200	0.800
Sample_104	0.094	0.906
Sample_105	0.178	0.822
