SampleID	Confidence_Value_CD	Confidence_Value_nonIBD
Sample_001	0.005611	0.994389
Sample_002	0.006691	0.993309
Sample_003	0.00294	0.99706
Sample_004	0.894887	0.105113
Sample_005	0.007363	0.992637
Sample_006	0.001933	0.998067
Sample_007	0.001509	0.998491
Sample_008	0.005215	0.994785
Sample_009	0.012697	0.987303
Sample_010	0.01109	0.98891
Sample_011	0.004794	0.995206
Sample_012	0.001031	0.998969
Sample_013	0.00686	0.99314
Sample_014	0.262707	0.737293
Sample_015	0.067999	0.932001
Sample_016	0.590208	0.409792
Sample_017	0.006778	0.993222
Sample_018	0.013523	0.986477
Sample_019	0.188721	0.811279
Sample_020	0.001275	0.998725
Sample_021	0.047798	0.952202
Sample_022	0.032478	0.967522
Sample_023	0.091255	0.908745
Sample_024	0.913059	0.086941
Sample_025	0.011949	0.988051
Sample_026	0.000784	0.999216
Sample_027	0.020166	0.979834
Sample_028	0.007959	0.992041
Sample_029	0.000364	0.999636
Sample_030	0.021657	0.978343
Sample_031	0.008357	0.991643
Sample_032	0.905701	0.094299
Sample_033	0.207437	0.792563
Sample_034	0.001172	0.998828
Sample_035	0.010711	0.989289
Sample_036	0.276386	0.723614
Sample_037	0.000432	0.999568
Sample_038	0.015696	0.984304
Sample_039	0.021909	0.978091
Sample_040	0.000636	0.999364
Sample_041	0.480871	0.519129
Sample_042	0.006002	0.993998
Sample_043	0.018358	0.981642
Sample_044	0.000615	0.999385
Sample_045	0.003301	0.996699
Sample_046	0.840581	0.159419
Sample_047	0.000675	0.999325
Sample_048	0.025448	0.974552
Sample_049	0.017129	0.982871
Sample_050	0.775549	0.224451
Sample_051	0.27535	0.72465
Sample_052	0.025817	0.974183
Sample_053	0.116489	0.883511
Sample_054	0.003686	0.996314
Sample_055	0.001807	0.998193
Sample_056	0.014438	0.985562
Sample_057	0.000468	0.999532
Sample_058	0.07176	0.92824
Sample_059	0.002006	0.997994
Sample_060	0.000611	0.999389
Sample_061	0.002098	0.997902
Sample_062	0.002213	0.997787
Sample_063	0.005264	0.994736
Sample_064	0.00539	0.99461
Sample_065	0.00042	0.99958
Sample_066	0.007217	0.992783
Sample_067	0.000431	0.999569
Sample_068	0.009408	0.990592
Sample_069	0.008876	0.991124
Sample_070	0.014189	0.985811
Sample_071	0.0079	0.9921
Sample_072	0.043776	0.956224
Sample_073	0.000803	0.999197
Sample_074	0.000283	0.999717
Sample_075	0.00081	0.99919
Sample_076	0.03062	0.96938
Sample_077	0.008982	0.991018
Sample_078	0.004673	0.995327
Sample_079	0.00957	0.99043
Sample_080	0.005443	0.994557
Sample_081	0.200438	0.799562
Sample_082	0.053188	0.946812
Sample_083	0.00127	0.99873
Sample_084	0.00067	0.99933
Sample_085	0.013686	0.986314
Sample_086	0.03076	0.96924
Sample_087	0.006828	0.993172
Sample_088	0.390537	0.609463
Sample_089	0.002179	0.997821
Sample_090	0.202223	0.797777
Sample_091	0.001384	0.998616
Sample_092	0.008162	0.991838
Sample_093	0.060103	0.939897
Sample_094	0.0095	0.9905
Sample_095	0.486589	0.513411
Sample_096	0.006403	0.993597
Sample_097	0.248696	0.751304
Sample_098	0.001572	0.998428
Sample_099	0.000804	0.999196
Sample_100	0.055875	0.944125
Sample_101	0.004549	0.995451
Sample_102	0.122624	0.877376
Sample_103	0.001016	0.998984
Sample_104	0.00233	0.99767
Sample_105	0.007369	0.992631
