SampleID	Confidence_Value_UC	Confidence_Value_nonIBD
Sample_001	1	0
Sample_002	1	0
Sample_003	0	1
Sample_004	1	0
Sample_005	0.368771	0.631229
Sample_006	0	1
Sample_007	1	0
Sample_008	0	1
Sample_009	1	0
Sample_010	0.803704	0.196296
Sample_011	0	1
Sample_012	1	0
Sample_013	1	0
Sample_014	1	0
Sample_015	0	1
Sample_016	1	0
Sample_017	0.845349	0.154651
Sample_018	0	1
Sample_019	1	0
Sample_020	0.367876	0.632124
Sample_021	0.301225	0.698775
Sample_022	1	0
Sample_023	1	0
Sample_024	0.862327	0.137673
Sample_025	0.133164	0.866836
Sample_026	1	0
Sample_027	0.594108	0.405892
Sample_028	0.153177	0.846823
Sample_029	0.298184	0.701816
Sample_030	0.711598	0.288402
Sample_031	0	1
Sample_032	0.389377	0.610623
Sample_033	1	0
Sample_034	0.262683	0.737317
Sample_035	0.209807	0.790193
Sample_036	1	0
Sample_037	0	1
Sample_038	0.574684	0.425316
Sample_039	1	0
Sample_040	0.326356	0.673644
Sample_041	1	0
Sample_042	1	0
Sample_043	1	0
Sample_044	0	1
Sample_045	0.252944	0.747056
Sample_046	1	0
Sample_047	1	0
Sample_048	0	1
Sample_049	1	0
Sample_050	0	1
Sample_051	0	1
Sample_052	0.131502	0.868498
Sample_053	0	1
Sample_054	0.887506	0.112494
Sample_055	1	0
Sample_056	1	0
Sample_057	0	1
Sample_058	0.846323	0.153677
Sample_059	0.314556	0.685444
Sample_060	0	1
Sample_061	1	0
Sample_062	0	1
Sample_063	0	1
Sample_064	0.104392	0.895608
Sample_065	0	1
Sample_066	1	0
Sample_067	1	0
Sample_068	0.109494	0.890506
Sample_069	1	0
Sample_070	1	0
Sample_071	1	0
Sample_072	1	0
Sample_073	0	1
Sample_074	0	1
Sample_075	1	0
Sample_076	1	0
Sample_077	1	0
Sample_078	0.608522	0.391478
Sample_079	0	1
Sample_080	0	1
Sample_081	0.758229	0.241771
Sample_082	0	1
Sample_083	0.509171	0.490829
Sample_084	0	1
Sample_085	1	0
Sample_086	1	0
Sample_087	0	1
Sample_088	1	0
Sample_089	1	0
Sample_090	0.650296	0.349704
Sample_091	1	0
Sample_092	0	1
Sample_093	1	0
Sample_094	1	0
Sample_095	0.582478	0.417522
Sample_096	1	0
Sample_097	0	1
Sample_098	0	1
Sample_099	1	0
Sample_100	1	0
Sample_101	1	0
Sample_102	0	1
Sample_103	1	0
Sample_104	0.779715	0.220285
Sample_105	1	0
