SampleID	Confidence_Value_CD	Confidence_Value_UC
Sample_001	0.892286	0.107714
Sample_002	1e-06	0.999999
Sample_003	0.001299	0.998701
Sample_004	0.978536	0.021464
Sample_005	1e-06	0.999999
Sample_006	0.01666	0.98334
Sample_007	1e-06	0.999999
Sample_008	0.79527	0.20473
Sample_009	1e-06	0.999999
Sample_010	0.335637	0.664363
Sample_011	0.442934	0.557066
Sample_012	1e-06	0.999999
Sample_013	0.406983	0.593017
Sample_014	0.001223	0.998777
Sample_015	0.044026	0.955974
Sample_016	0.937288	0.062712
Sample_017	1e-06	0.999999
Sample_018	1e-06	0.999999
Sample_019	0.001443	0.998557
Sample_020	1e-06	0.999999
Sample_021	3e-06	0.999997
Sample_022	1e-06	0.999999
Sample_023	1e-06	0.999999
Sample_024	1e-06	0.999999
Sample_025	0.885708	0.114292
Sample_026	1.2e-05	0.999988
Sample_027	0.008763	0.991237
Sample_028	0.000676	0.999324
Sample_029	1e-06	0.999999
Sample_030	0.024033	0.975967
Sample_031	0.439532	0.560468
Sample_032	0.929702	0.070298
Sample_033	0.278853	0.721147
Sample_034	0.000532	0.999468
Sample_035	0.000114	0.999886
Sample_036	0.001037	0.998963
Sample_037	0.079144	0.920856
Sample_038	1e-06	0.999999
Sample_039	9e-06	0.999991
Sample_040	0.001189	0.998811
Sample_041	1e-06	0.999999
Sample_042	1e-06	0.999999
Sample_043	1e-06	0.999999
Sample_044	0.740418	0.259582
Sample_045	1e-06	0.999999
Sample_046	1e-06	0.999999
Sample_047	1e-05	0.99999
Sample_048	1e-06	0.999999
Sample_049	0.000247	0.999753
Sample_050	0.172553	0.827447
Sample_051	1e-06	0.999999
Sample_052	0.501028	0.498972
Sample_053	0.001657	0.998343
Sample_054	1e-06	0.999999
Sample_055	0.000184	0.999816
Sample_056	0.002673	0.997327
Sample_057	0.088285	0.911715
Sample_058	0.296681	0.703319
Sample_059	0.080454	0.919546
Sample_060	1e-06	0.999999
Sample_061	1e-06	0.999999
Sample_062	0.001211	0.998789
Sample_063	1e-06	0.999999
Sample_064	0.017685	0.982315
Sample_065	0.575375	0.424625
Sample_066	0.320796	0.679204
Sample_067	0.007854	0.992146
Sample_068	0.140502	0.859498
Sample_069	0.000165	0.999835
Sample_070	0	1
Sample_071	0.330354	0.669646
Sample_072	0.000334	0.999666
Sample_073	0.080507	0.919493
Sample_074	0.627383	0.372617
Sample_075	1e-06	0.999999
Sample_076	1e-06	0.999999
Sample_077	0.12813	0.87187
Sample_078	0.016282	0.983718
Sample_079	1e-06	0.999999
Sample_080	1e-06	0.999999
Sample_081	0.951521	0.048479
Sample_082	1e-06	0.999999
Sample_083	1e-06	0.999999
Sample_084	2e-06	0.999998
Sample_085	1e-06	0.999999
Sample_086	1e-06	0.999999
Sample_087	1e-06	0.999999
Sample_088	1e-06	0.999999
Sample_089	1.2e-05	0.999988
Sample_090	3e-05	0.99997
Sample_091	1e-06	0.999999
Sample_092	1e-06	0.999999
Sample_093	0.032183	0.967817
Sample_094	2e-06	0.999998
Sample_095	1.8e-05	0.999982
Sample_096	0.950824	0.049176
Sample_097	0.126249	0.873751
Sample_098	0	1
Sample_099	1.1e-05	0.999989
Sample_100	1e-06	0.999999
Sample_101	9e-04	0.9991
Sample_102	0.019647	0.980353
Sample_103	1e-06	0.999999
Sample_104	1.3e-05	0.999987
Sample_105	1e-06	0.999999
