SampleID	Confidence_Value_IBD	Confidence_Value_nonIBD
Sample_001	0.695657	0.304343
Sample_002	0.534478	0.465522
Sample_003	0	1
Sample_004	1	0
Sample_005	0.3466	0.6534
Sample_006	0	1
Sample_007	0	1
Sample_008	0	1
Sample_009	1	0
Sample_010	0	1
Sample_011	0	1
Sample_012	0	1
Sample_013	0	1
Sample_014	1	0
Sample_015	0.324803	0.675197
Sample_016	1	0
Sample_017	0	1
Sample_018	0	1
Sample_019	0.48339	0.51661
Sample_020	0	1
Sample_021	0.807388	0.192612
Sample_022	0	1
Sample_023	1	0
Sample_024	0.822526	0.177474
Sample_025	0	1
Sample_026	0	1
Sample_027	0	1
Sample_028	0	1
Sample_029	0.163691	0.836309
Sample_030	0	1
Sample_031	0	1
Sample_032	0.37889	0.62111
Sample_033	0.279948	0.720052
Sample_034	0	1
Sample_035	0.208373	0.791627
Sample_036	1	0
Sample_037	0.703074	0.296926
Sample_038	0.622653	0.377347
Sample_039	1	0
Sample_040	0	1
Sample_041	0	1
Sample_042	0	1
Sample_043	0.87574	0.12426
Sample_044	0	1
Sample_045	0	1
Sample_046	0	1
Sample_047	0	1
Sample_048	0	1
Sample_049	1	0
Sample_050	0.857304	0.142696
Sample_051	0	1
Sample_052	0.253663	0.746337
Sample_053	0.202728	0.797272
Sample_054	0	1
Sample_055	1	0
Sample_056	0	1
Sample_057	0	1
Sample_058	0.259041	0.740959
Sample_059	0	1
Sample_060	0	1
Sample_061	0	1
Sample_062	0.209575	0.790425
Sample_063	0	1
Sample_064	0	1
Sample_065	0	1
Sample_066	1	0
Sample_067	0.259891	0.740109
Sample_068	0.206174	0.793826
Sample_069	0.490787	0.509213
Sample_070	1	0
Sample_071	0	1
Sample_072	0.326299	0.673701
Sample_073	0	1
Sample_074	0	1
Sample_075	0.683104	0.316896
Sample_076	0.133478	0.866522
Sample_077	0	1
Sample_078	0	1
Sample_079	0	1
Sample_080	0	1
Sample_081	0	1
Sample_082	0.12037	0.87963
Sample_083	0	1
Sample_084	0	1
Sample_085	0	1
Sample_086	0	1
Sample_087	0	1
Sample_088	0	1
Sample_089	0.859042	0.140958
Sample_090	0.159684	0.840316
Sample_091	0	1
Sample_092	0	1
Sample_093	0.817876	0.182124
Sample_094	0	1
Sample_095	1	0
Sample_096	0	1
Sample_097	0	1
Sample_098	0	1
Sample_099	0	1
Sample_100	1	0
Sample_101	0.413667	0.586333
Sample_102	0.703516	0.296484
Sample_103	0	1
Sample_104	0	1
Sample_105	0	1
