SampleID	Confidence_Value_UC	Confidence_Value_nonIBD
Sample_001	0.261214	0.738786
Sample_002	0.001385	0.998615
Sample_003	0.063802	0.936198
Sample_004	0.192748	0.807252
Sample_005	0.01701	0.98299
Sample_006	0.001576	0.998424
Sample_007	0.064244	0.935756
Sample_008	0.019321	0.980679
Sample_009	0.143419	0.856581
Sample_010	0.000306	0.999694
Sample_011	0.091591	0.908409
Sample_012	0.063802	0.936198
Sample_013	0.056461	0.943539
Sample_014	0.114124	0.885876
Sample_015	0.027379	0.972621
Sample_016	0.100941	0.899059
Sample_017	0.126817	0.873183
Sample_018	0.014861	0.985139
Sample_019	0.005459	0.994541
Sample_020	0.064244	0.935756
Sample_021	0.113871	0.886129
Sample_022	0.213405	0.786595
Sample_023	0.039911	0.960089
Sample_024	0.101168	0.898832
Sample_025	0.235157	0.764843
Sample_026	0.003332	0.996668
Sample_027	0.003793	0.996207
Sample_028	0.056724	0.943276
Sample_029	0.064096	0.935904
Sample_030	0.064096	0.935904
Sample_031	0.003341	0.996659
Sample_032	0.101395	0.898605
Sample_033	0.027513	0.972487
Sample_034	0.064096	0.935904
Sample_035	0.032884	0.967116
Sample_036	0.113619	0.886381
Sample_037	0.007529	0.992471
Sample_038	0.056988	0.943012
Sample_039	0.056592	0.943408
Sample_040	0.063949	0.936051
Sample_041	0.114124	0.885876
Sample_042	0.141928	0.858072
Sample_043	0.021883	0.978117
Sample_044	0.235601	0.764399
Sample_045	0.234715	0.765285
Sample_046	0.027647	0.972353
Sample_047	0.01788	0.98212
Sample_048	0.076697	0.923303
Sample_049	0.027579	0.972421
Sample_050	0.101168	0.898832
Sample_051	0.035636	0.964364
Sample_052	0.027513	0.972487
Sample_053	0.064096	0.935904
Sample_054	0.035386	0.964614
Sample_055	0.013104	0.986896
Sample_056	0.198134	0.801866
Sample_057	0.033281	0.966719
Sample_058	0.063949	0.936051
Sample_059	0.142804	0.857196
Sample_060	0.072344	0.927656
Sample_061	0.045399	0.954601
Sample_062	0.13439	0.86561
Sample_063	0.008523	0.991477
Sample_064	0.000175	0.999825
Sample_065	0.063949	0.936051
Sample_066	0.064096	0.935904
Sample_067	0.027513	0.972487
Sample_068	0.033201	0.966799
Sample_069	0.064244	0.935756
Sample_070	0.042731	0.957269
Sample_071	0.526639	0.473361
Sample_072	0.008079	0.991921
Sample_073	0.056724	0.943276
Sample_074	0.007051	0.992949
Sample_075	0.343345	0.656655
Sample_076	0.006212	0.993788
Sample_077	0.11605	0.88395
Sample_078	0.035386	0.964614
Sample_079	0.26169	0.73831
Sample_080	0.063802	0.936198
Sample_081	0.483495	0.516505
Sample_082	0.027513	0.972487
Sample_083	0.108987	0.891013
Sample_084	0.23738	0.76262
Sample_085	0.176926	0.823074
Sample_086	0.027513	0.972487
Sample_087	0.076697	0.923303
Sample_088	0.113871	0.886129
Sample_089	0.113871	0.886129
Sample_090	0.006212	0.993788
Sample_091	0.102036	0.897964
Sample_092	0.000842	0.999158
Sample_093	0.127092	0.872908
Sample_094	0.141928	0.858072
Sample_095	0.03555	0.96445
Sample_096	0.287015	0.712985
Sample_097	0.027513	0.972487
Sample_098	0.037725	0.962275
Sample_099	0.159076	0.840924
Sample_100	0.035464	0.964536
Sample_101	0.056988	0.943012
Sample_102	0.027647	0.972353
Sample_103	0.202769	0.797231
Sample_104	0.001561	0.998439
Sample_105	0.374213	0.625787
