SampleID	Confidence_Value_CD	Confidence_Value_nonIBD
Sample_001	0.008588	0.991412
Sample_002	0.000133	0.999867
Sample_003	9.2e-05	0.999908
Sample_004	0.965444	0.034556
Sample_005	2.3e-05	0.999977
Sample_006	0.000789	0.999211
Sample_007	0.00058	0.99942
Sample_008	0.001734	0.998266
Sample_009	0.997026	0.00297400000000003
Sample_010	0.072753	0.927247
Sample_011	0.007652	0.992348
Sample_012	0	1
Sample_013	0.010643	0.989357
Sample_014	0.001064	0.998936
Sample_015	0.000302	0.999698
Sample_016	0.171309	0.828691
Sample_017	0.009389	0.990611
Sample_018	0.001209	0.998791
Sample_019	0.002619	0.997381
Sample_020	4.5e-05	0.999955
Sample_021	0.000126	0.999874
Sample_022	0.156068	0.843932
Sample_023	0.915926	0.084074
Sample_024	0.947467	0.0525330000000001
Sample_025	0.082221	0.917779
Sample_026	0.0326	0.9674
Sample_027	0.117043	0.882957
Sample_028	1.9e-05	0.999981
Sample_029	0	1
Sample_030	0.00963	0.99037
Sample_031	3.6e-05	0.999964
Sample_032	0.985794	0.0142060000000001
Sample_033	0.450445	0.549555
Sample_034	0.00565	0.99435
Sample_035	0	1
Sample_036	0.001367	0.998633
Sample_037	0.012042	0.987958
Sample_038	0.000396	0.999604
Sample_039	0.000256	0.999744
Sample_040	0.000953	0.999047
Sample_041	0.234876	0.765124
Sample_042	0.051499	0.948501
Sample_043	9e-06	0.999991
Sample_044	0.008011	0.991989
Sample_045	1e-06	0.999999
Sample_046	0.996039	0.00396099999999999
Sample_047	0	1
Sample_048	0.000223	0.999777
Sample_049	0.219066	0.780934
Sample_050	0.941652	0.058348
Sample_051	5.1e-05	0.999949
Sample_052	0.009378	0.990622
Sample_053	0.069774	0.930226
Sample_054	0.005334	0.994666
Sample_055	0.032302	0.967698
Sample_056	0.82492	0.17508
Sample_057	0.003236	0.996764
Sample_058	0.115868	0.884132
Sample_059	8.2e-05	0.999918
Sample_060	0.000327	0.999673
Sample_061	0.023194	0.976806
Sample_062	0.000497	0.999503
Sample_063	1.9e-05	0.999981
Sample_064	0.00325	0.99675
Sample_065	0.001491	0.998509
Sample_066	0.000176	0.999824
Sample_067	0.003265	0.996735
Sample_068	0.040162	0.959838
Sample_069	0.000882	0.999118
Sample_070	0	1
Sample_071	0.0619	0.9381
Sample_072	2.2e-05	0.999978
Sample_073	0.000269	0.999731
Sample_074	0.001525	0.998475
Sample_075	0.000209	0.999791
Sample_076	4e-06	0.999996
Sample_077	0.000293	0.999707
Sample_078	0.000859	0.999141
Sample_079	0.00296	0.99704
Sample_080	0.03403	0.96597
Sample_081	0.096012	0.903988
Sample_082	0.050599	0.949401
Sample_083	0.00015	0.99985
Sample_084	4.5e-05	0.999955
Sample_085	0.002299	0.997701
Sample_086	0.677016	0.322984
Sample_087	3e-06	0.999997
Sample_088	0.016385	0.983615
Sample_089	0.010211	0.989789
Sample_090	0.026237	0.973763
Sample_091	0.680678	0.319322
Sample_092	0.043743	0.956257
Sample_093	0.845008	0.154992
Sample_094	0.00253	0.99747
Sample_095	0.521546	0.478454
Sample_096	0.193626	0.806374
Sample_097	0.111774	0.888226
Sample_098	0	1
Sample_099	0.004261	0.995739
Sample_100	0.002908	0.997092
Sample_101	0.000942	0.999058
Sample_102	0.000884	0.999116
Sample_103	0.460052	0.539948
Sample_104	2.1e-05	0.999979
Sample_105	0.234513	0.765487
