SampleID	Confidence_Value_CD	Confidence_Value_UC
Sample_001	0.78	0.22
Sample_002	1	0
Sample_003	0.668	0.332
Sample_004	1	0
Sample_005	0.692	0.308
Sample_006	0.758	0.242
Sample_007	0.756	0.244
Sample_008	0.534	0.466
Sample_009	0.87	0.13
Sample_010	0.768	0.232
Sample_011	0.626	0.374
Sample_012	0.644	0.356
Sample_013	0.68	0.32
Sample_014	0.728	0.272
Sample_015	0.784	0.216
Sample_016	1	0
Sample_017	0.496	0.504
Sample_018	0.802	0.198
Sample_019	0.862	0.138
Sample_020	0.684	0.316
Sample_021	0.896	0.104
Sample_022	0.824	0.176
Sample_023	0.432	0.568
Sample_024	1	0
Sample_025	0.516	0.484
Sample_026	0.668	0.332
Sample_027	0.568	0.432
Sample_028	0.788	0.212
Sample_029	0.738	0.262
Sample_030	0.768	0.232
Sample_031	0.844	0.156
Sample_032	1	0
Sample_033	0.606	0.394
Sample_034	0.766	0.234
Sample_035	0.808	0.192
Sample_036	0.744	0.256
Sample_037	0.888	0.112
Sample_038	0.728	0.272
Sample_039	0.764	0.236
Sample_040	0.616	0.384
Sample_041	0.89	0.11
Sample_042	0.43	0.57
Sample_043	0.534	0.466
Sample_044	0.566	0.434
Sample_045	0.564	0.436
Sample_046	1	0
Sample_047	0.562	0.438
Sample_048	0.736	0.264
Sample_049	1	0
Sample_050	1	0
Sample_051	0.834	0.166
Sample_052	0.824	0.176
Sample_053	0.788	0.212
Sample_054	0.58	0.42
Sample_055	0.76	0.24
Sample_056	0.456	0.544
Sample_057	0.806	0.194
Sample_058	0.83	0.17
Sample_059	0.74	0.26
Sample_060	0.738	0.262
Sample_061	0.428	0.572
Sample_062	0.784	0.216
Sample_063	0.75	0.25
Sample_064	0.6	0.4
Sample_065	0.7	0.3
Sample_066	0.752	0.248
Sample_067	0.77	0.23
Sample_068	0.774	0.226
Sample_069	0.778	0.222
Sample_070	0.69	0.31
Sample_071	0.414	0.586
Sample_072	0.852	0.148
Sample_073	0.746	0.254
Sample_074	0.708	0.292
Sample_075	0.504	0.496
Sample_076	0.762	0.238
Sample_077	0.436	0.564
Sample_078	0.498	0.502
Sample_079	0.558	0.442
Sample_080	0.564	0.436
Sample_081	0.484	0.516
Sample_082	0.622	0.378
Sample_083	0.654	0.346
Sample_084	0.678	0.322
Sample_085	0.448	0.552
Sample_086	0.622	0.378
Sample_087	0.744	0.256
Sample_088	0.762	0.238
Sample_089	1	0
Sample_090	0.878	0.122
Sample_091	0.55	0.45
Sample_092	0.538	0.462
Sample_093	0.85	0.15
Sample_094	0.726	0.274
Sample_095	0.618	0.382
Sample_096	0.62	0.38
Sample_097	0.75	0.25
Sample_098	0.698	0.302
Sample_099	0.64	0.36
Sample_100	0.578	0.422
Sample_101	0.712	0.288
Sample_102	1	0
Sample_103	0.752	0.248
Sample_104	0.606	0.394
Sample_105	0.43	0.57
