SampleID	Confidence_Value_CD	Confidence_Value_nonIBD
Sample_001	0	1
Sample_002	0	1
Sample_003	0	1
Sample_004	1	0
Sample_005	0	1
Sample_006	0	1
Sample_007	0	1
Sample_008	0	1
Sample_009	1	0
Sample_010	0	1
Sample_011	0	1
Sample_012	0	1
Sample_013	0	1
Sample_014	0	1
Sample_015	0	1
Sample_016	0.171309	0.828691
Sample_017	0	1
Sample_018	0	1
Sample_019	0	1
Sample_020	0	1
Sample_021	0	1
Sample_022	0.156068	0.843932
Sample_023	1	0
Sample_024	1	0
Sample_025	0	1
Sample_026	0	1
Sample_027	0.117043	0.882957
Sample_028	0	1
Sample_029	0	1
Sample_030	0	1
Sample_031	0	1
Sample_032	1	0
Sample_033	0.450445	0.549555
Sample_034	0	1
Sample_035	0	1
Sample_036	0	1
Sample_037	0	1
Sample_038	0	1
Sample_039	0	1
Sample_040	0	1
Sample_041	0.234876	0.765124
Sample_042	0	1
Sample_043	0	1
Sample_044	0	1
Sample_045	0	1
Sample_046	1	0
Sample_047	0	1
Sample_048	0	1
Sample_049	0.219066	0.780934
Sample_050	1	0
Sample_051	0	1
Sample_052	0	1
Sample_053	0	1
Sample_054	0	1
Sample_055	0	1
Sample_056	0.82492	0.17508
Sample_057	0	1
Sample_058	0.115868	0.884132
Sample_059	0	1
Sample_060	0	1
Sample_061	0	1
Sample_062	0	1
Sample_063	0	1
Sample_064	0	1
Sample_065	0	1
Sample_066	0	1
Sample_067	0	1
Sample_068	0	1
Sample_069	0	1
Sample_070	0	1
Sample_071	0	1
Sample_072	0	1
Sample_073	0	1
Sample_074	0	1
Sample_075	0	1
Sample_076	0	1
Sample_077	0	1
Sample_078	0	1
Sample_079	0	1
Sample_080	0	1
Sample_081	0	1
Sample_082	0	1
Sample_083	0	1
Sample_084	0	1
Sample_085	0	1
Sample_086	0.677016	0.322984
Sample_087	0	1
Sample_088	0	1
Sample_089	0	1
Sample_090	0	1
Sample_091	0.680678	0.319322
Sample_092	0	1
Sample_093	0.845008	0.154992
Sample_094	0	1
Sample_095	0.521546	0.478454
Sample_096	0.193626	0.806374
Sample_097	0.111774	0.888226
Sample_098	0	1
Sample_099	0	1
Sample_100	0	1
Sample_101	0	1
Sample_102	0	1
Sample_103	0.460052	0.539948
Sample_104	0	1
Sample_105	0.234513	0.765487
