SampleID	Confidence_Value_CD	Confidence_Value_nonIBD
Sample_001	0.134411806	0.865588194
Sample_002	0.069962628	0.930037372
Sample_003	0.666665105	0.333334895
Sample_004	0.166917357	0.833082643
Sample_005	0.7769948	0.2230052
Sample_006	0.227464659	0.772535341
Sample_007	0.361996484	0.638003516
Sample_008	0.240753364	0.759246636
Sample_009	0.007476046	0.992523954
Sample_010	0.033830321	0.966169679
Sample_011	0.72992541	0.27007459
Sample_012	0.897818633	0.102181367
Sample_013	0.408538821	0.591461179
Sample_014	0.237516377	0.762483623
Sample_015	0.893874374	0.106125626
Sample_016	0.072311713	0.927688287
Sample_017	0.189246163	0.810753837
Sample_018	0.19647687	0.80352313
Sample_019	0.158873321	0.841126679
Sample_020	0.423698371	0.576301629
Sample_021	0.164562724	0.835437276
Sample_022	0.077828472	0.922171528
Sample_023	0.050966603	0.949033397
Sample_024	0.580230324	0.419769676
Sample_025	0.649050794	0.350949206
Sample_026	0.463120143	0.536879857
Sample_027	0.927606751	0.072393249
Sample_028	0.792807486	0.207192514
Sample_029	0.193559665	0.806440335
Sample_030	0.161336474	0.838663526
Sample_031	0.097504797	0.902495203
Sample_032	0.187522948	0.812477052
Sample_033	0.065744791	0.934255209
Sample_034	0.006198518	0.993801482
Sample_035	0.137847965	0.862152035
Sample_036	0.734152229	0.265847771
Sample_037	0.098084511	0.901915489
Sample_038	0.05902246	0.94097754
Sample_039	0.877328994	0.122671006
Sample_040	0.213463838	0.786536162
Sample_041	0.00585172	0.99414828
Sample_042	0.338979894	0.661020106
Sample_043	0.167690812	0.832309188
Sample_044	0.788747348	0.211252652
Sample_045	0.368130001	0.631869999
Sample_046	0.203446919	0.796553081
Sample_047	0.0742077	0.9257923
Sample_048	0.443878525	0.556121475
Sample_049	0.524207711	0.475792289
Sample_050	0.000919291	0.999080709
Sample_051	0.026418244	0.973581756
Sample_052	0.558523869	0.441476131
Sample_053	0.364535696	0.635464304
Sample_054	0.285811648	0.714188352
Sample_055	0.997734849	0.002265151
Sample_056	0.691777619	0.308222381
Sample_057	0.740515915	0.259484085
Sample_058	0.828862551	0.171137449
Sample_059	0.817245642	0.182754358
Sample_060	0.345735611	0.654264389
Sample_061	0.147639743	0.852360257
Sample_062	0.584015427	0.415984573
Sample_063	0.083753667	0.916246333
Sample_064	0.490511339	0.509488661
Sample_065	0.086988854	0.913011146
Sample_066	0.098095143	0.901904857
Sample_067	0.041918609	0.958081391
Sample_068	0.011339442	0.988660558
Sample_069	0.998730582	0.001269418
Sample_070	0.972812212	0.027187788
Sample_071	0.766457165	0.233542835
Sample_072	0.209528925	0.790471075
Sample_073	0.000118542	0.999881458
Sample_074	0.776260489	0.223739511
Sample_075	0.41798255	0.58201745
Sample_076	0.488828123	0.511171877
Sample_077	0.943186061	0.056813939
Sample_078	0.789107051	0.210892949
Sample_079	0.085752733	0.914247267
Sample_080	0.796929773	0.203070227
Sample_081	0.500964134	0.499035866
Sample_082	0.775129039	0.224870961
Sample_083	0.297761258	0.702238742
Sample_084	0.144567763	0.855432237
Sample_085	0.343571428	0.656428572
Sample_086	0.24916536	0.75083464
Sample_087	0.252919312	0.747080688
Sample_088	0.967971368	0.032028632
Sample_089	0.727570345	0.272429655
Sample_090	0.770620306	0.229379694
Sample_091	0.14159553	0.85840447
Sample_092	0.801291286	0.198708714
Sample_093	0.199906954	0.800093046
Sample_094	0.371983126	0.628016874
Sample_095	0.937196015	0.062803985
Sample_096	0.524711093	0.475288907
Sample_097	0.106457911	0.893542089
Sample_098	0.047864284	0.952135716
Sample_099	0.686264691	0.313735309
Sample_100	0.301121964	0.698878036
Sample_101	0.49204536	0.50795464
Sample_102	0.001038346	0.998961654
Sample_103	0.203821287	0.796178713
Sample_104	0.109071897	0.890928103
Sample_105	0.88941778	0.11058222
