SampleID	Confidence_Value_CD	Confidence_Value_UC
Sample_001	1	0
Sample_002	0	1
Sample_003	0	1
Sample_004	1	0
Sample_005	0	1
Sample_006	0.594036	0.405964
Sample_007	0	1
Sample_008	1	0
Sample_009	1	0
Sample_010	1	0
Sample_011	0.459122	0.540878
Sample_012	0	1
Sample_013	1	0
Sample_014	0.870959	0.129041
Sample_015	0	1
Sample_016	1	0
Sample_017	0	1
Sample_018	0	1
Sample_019	0	1
Sample_020	0	1
Sample_021	0	1
Sample_022	0.88725	0.11275
Sample_023	0	1
Sample_024	0	1
Sample_025	1	0
Sample_026	0.825667	0.174333
Sample_027	0.773831	0.226169
Sample_028	0	1
Sample_029	0	1
Sample_030	0.404347	0.595653
Sample_031	1	0
Sample_032	1	0
Sample_033	1	0
Sample_034	0	1
Sample_035	0	1
Sample_036	1	0
Sample_037	1	0
Sample_038	0	1
Sample_039	0.588549	0.411451
Sample_040	0	1
Sample_041	0	1
Sample_042	1	0
Sample_043	0	1
Sample_044	0.871285	0.128715
Sample_045	0	1
Sample_046	0	1
Sample_047	0	1
Sample_048	0	1
Sample_049	1	0
Sample_050	1	0
Sample_051	0	1
Sample_052	1	0
Sample_053	0.152644	0.847356
Sample_054	0.557554	0.442446
Sample_055	1	0
Sample_056	0.407528	0.592472
Sample_057	0.433726	0.566274
Sample_058	0.865867	0.134133
Sample_059	0.563247	0.436753
Sample_060	1	0
Sample_061	1	0
Sample_062	0.122572	0.877428
Sample_063	0	1
Sample_064	0.402537	0.597463
Sample_065	1	0
Sample_066	1	0
Sample_067	0	1
Sample_068	0.778904	0.221096
Sample_069	0.503877	0.496123
Sample_070	0	1
Sample_071	1	0
Sample_072	0.259861	0.740139
Sample_073	0.2638	0.7362
Sample_074	0.884927	0.115073
Sample_075	0.33394	0.66606
Sample_076	0	1
Sample_077	1	0
Sample_078	0.702353	0.297647
Sample_079	0.371499	0.628501
Sample_080	1	0
Sample_081	1	0
Sample_082	1	0
Sample_083	0.402522	0.597478
Sample_084	0	1
Sample_085	0.463793	0.536207
Sample_086	1	0
Sample_087	0	1
Sample_088	0	1
Sample_089	0.233734	0.766266
Sample_090	1	0
Sample_091	0	1
Sample_092	1	0
Sample_093	1	0
Sample_094	0	1
Sample_095	0.847062	0.152938
Sample_096	1	0
Sample_097	0	1
Sample_098	0	1
Sample_099	1	0
Sample_100	0	1
Sample_101	1	0
Sample_102	0.220515	0.779485
Sample_103	0	1
Sample_104	0	1
Sample_105	0	1
