SampleID	Confidence_Value_CD	Confidence_Value_UC
Sample_001	0	1
Sample_002	1	0
Sample_003	1	0
Sample_004	1	0
Sample_005	0	1
Sample_006	0	1
Sample_007	0	1
Sample_008	0	1
Sample_009	0	1
Sample_010	0	1
Sample_011	0.867546	0.132454
Sample_012	0	1
Sample_013	0	1
Sample_014	0.619572	0.380428
Sample_015	0	1
Sample_016	1	0
Sample_017	0	1
Sample_018	0.618036	0.381964
Sample_019	1	0
Sample_020	0	1
Sample_021	0.794486	0.205514
Sample_022	0	1
Sample_023	0	1
Sample_024	0.134457	0.865543
Sample_025	0	1
Sample_026	0	1
Sample_027	0	1
Sample_028	0.369286	0.630714
Sample_029	0	1
Sample_030	0	1
Sample_031	0	1
Sample_032	1	0
Sample_033	0	1
Sample_034	0	1
Sample_035	1	0
Sample_036	0.836367	0.163633
Sample_037	0.595723	0.404277
Sample_038	0	1
Sample_039	0	1
Sample_040	0	1
Sample_041	0.247897	0.752103
Sample_042	0	1
Sample_043	0	1
Sample_044	0	1
Sample_045	0	1
Sample_046	1	0
Sample_047	0	1
Sample_048	0	1
Sample_049	1	0
Sample_050	1	0
Sample_051	0	1
Sample_052	0.119949	0.880051
Sample_053	0	1
Sample_054	0	1
Sample_055	0	1
Sample_056	0	1
Sample_057	0	1
Sample_058	0.842365	0.157635
Sample_059	0.347649	0.652351
Sample_060	0	1
Sample_061	0	1
Sample_062	0.46585	0.53415
Sample_063	0	1
Sample_064	0	1
Sample_065	0	1
Sample_066	0	1
Sample_067	0.882827	0.117173
Sample_068	0.865837	0.134163
Sample_069	0	1
Sample_070	0	1
Sample_071	0	1
Sample_072	0.84235	0.15765
Sample_073	1	0
Sample_074	0	1
Sample_075	0	1
Sample_076	0	1
Sample_077	0	1
Sample_078	0	1
Sample_079	0	1
Sample_080	0	1
Sample_081	0	1
Sample_082	0	1
Sample_083	0	1
Sample_084	0	1
Sample_085	0	1
Sample_086	0	1
Sample_087	0.582239	0.417761
Sample_088	1	0
Sample_089	0	1
Sample_090	0	1
Sample_091	0	1
Sample_092	0	1
Sample_093	0	1
Sample_094	0	1
Sample_095	0	1
Sample_096	0.110113	0.889887
Sample_097	0	1
Sample_098	0	1
Sample_099	0	1
Sample_100	0	1
Sample_101	0	1
Sample_102	1	0
Sample_103	0	1
Sample_104	0	1
Sample_105	0	1
