SampleID	Confidence_Value_CD	Confidence_Value_nonIBD
Sample_001	0.596872	0.403128
Sample_002	0.409547	0.590453
Sample_003	0.020265	0.979735
Sample_004	0.984263	0.015737
Sample_005	0.384697	0.615303
Sample_006	0.044985	0.955015
Sample_007	0.409274	0.590726
Sample_008	0.101416	0.898584
Sample_009	0.409547	0.590453
Sample_010	0.080279	0.919721
Sample_011	0.012371	0.987629
Sample_012	0.406101	0.593899
Sample_013	0.230039	0.769961
Sample_014	0.060137	0.939863
Sample_015	0.004194	0.995806
Sample_016	0.529339	0.470661
Sample_017	0.409547	0.590453
Sample_018	0.015107	0.984893
Sample_019	0.192538	0.807462
Sample_020	0.409547	0.590453
Sample_021	0.385792	0.614208
Sample_022	0.13509	0.86491
Sample_023	0.348481	0.651519
Sample_024	0.409877	0.590123
Sample_025	0.288216	0.711784
Sample_026	0.050664	0.949336
Sample_027	0.420022	0.579978
Sample_028	0.189673	0.810327
Sample_029	0.205653	0.794347
Sample_030	0.041768	0.958232
Sample_031	0.409547	0.590453
Sample_032	0.954083	0.045917
Sample_033	0.630728	0.369272
Sample_034	0.195444	0.804556
Sample_035	0.006173	0.993827
Sample_036	0.094342	0.905658
Sample_037	0.006732	0.993268
Sample_038	0.409517	0.590483
Sample_039	0.237024	0.762976
Sample_040	0.01056	0.98944
Sample_041	0.412847	0.587153
Sample_042	0.304145	0.695855
Sample_043	0.274959	0.725041
Sample_044	0.044959	0.955041
Sample_045	0.208643	0.791357
Sample_046	0.751586	0.248414
Sample_047	0.405614	0.594386
Sample_048	0.102229	0.897771
Sample_049	0.414038	0.585962
Sample_050	0.570088	0.429912
Sample_051	0.409547	0.590453
Sample_052	0.016767	0.983233
Sample_053	0.58011	0.41989
Sample_054	0.226136	0.773864
Sample_055	0.139807	0.860193
Sample_056	0.771099	0.228901
Sample_057	0.204781	0.795219
Sample_058	0.149099	0.850901
Sample_059	0.006679	0.993321
Sample_060	0.358413	0.641587
Sample_061	0.409089	0.590911
Sample_062	0.007871	0.992129
Sample_063	0.348413	0.651587
Sample_064	0.26146	0.73854
Sample_065	0.289743	0.710257
Sample_066	0.00335	0.99665
Sample_067	0.012768	0.987232
Sample_068	0.068981	0.931019
Sample_069	0.020799	0.979201
Sample_070	0.171642	0.828358
Sample_071	0.25028	0.74972
Sample_072	0.409547	0.590453
Sample_073	0.005217	0.994783
Sample_074	0.000996	0.999004
Sample_075	0.036576	0.963424
Sample_076	0.409547	0.590453
Sample_077	0.027175	0.972825
Sample_078	0.409547	0.590453
Sample_079	0.010474	0.989526
Sample_080	0.274507	0.725493
Sample_081	0.233342	0.766658
Sample_082	0.178325	0.821675
Sample_083	0.01161	0.98839
Sample_084	0.00916	0.99084
Sample_085	0.408826	0.591174
Sample_086	0.39416	0.60584
Sample_087	0.290927	0.709073
Sample_088	0.409268	0.590732
Sample_089	0.352253	0.647747
Sample_090	0.409548	0.590452
Sample_091	0.409148	0.590852
Sample_092	0.409547	0.590453
Sample_093	0.650674	0.349326
Sample_094	0.226584	0.773416
Sample_095	0.847975	0.152025
Sample_096	0.267344	0.732656
Sample_097	0.230674	0.769326
Sample_098	0.009272	0.990728
Sample_099	0.211212	0.788788
Sample_100	0.409547	0.590453
Sample_101	0.409547	0.590453
Sample_102	0.207106	0.792894
Sample_103	0.409547	0.590453
Sample_104	0.370082	0.629918
Sample_105	0.328591	0.671409
