SampleID	Confidence_Value_UC	Confidence_Value_nonIBD
Sample_001	0.99999	9.99999999995449e-06
Sample_002	0.999993	6.99999999997925e-06
Sample_003	0.131524	0.868476
Sample_004	0.775408	0.224592
Sample_005	0.275128	0.724872
Sample_006	0.003341	0.996659
Sample_007	0.299087	0.700913
Sample_008	0.005583	0.994417
Sample_009	0.999993	6.99999999997925e-06
Sample_010	0.339767	0.660233
Sample_011	0.030239	0.969761
Sample_012	0.575927	0.424073
Sample_013	0.992713	0.00728700000000004
Sample_014	0.999963	3.69999999999537e-05
Sample_015	0.000531	0.999469
Sample_016	0.837311	0.162689
Sample_017	0.012405	0.987595
Sample_018	0.013988	0.986012
Sample_019	0.999998	1.99999999994649e-06
Sample_020	0.001978	0.998022
Sample_021	0.142566	0.857434
Sample_022	0.999999	1.00000000002876e-06
Sample_023	0.999972	2.8000000000028e-05
Sample_024	0.815425	0.184575
Sample_025	0.418903	0.581097
Sample_026	0.999972	2.8000000000028e-05
Sample_027	0.931699	0.0683009999999999
Sample_028	0.069461	0.930539
Sample_029	0.049957	0.950043
Sample_030	0.922101	0.0778990000000001
Sample_031	0.009877	0.990123
Sample_032	0.097627	0.902373
Sample_033	0.999594	0.000406000000000017
Sample_034	0.071705	0.928295
Sample_035	0.004625	0.995375
Sample_036	0.99996	4.000000000004e-05
Sample_037	7.2e-05	0.999928
Sample_038	0.138557	0.861443
Sample_039	0.999995	5.00000000003276e-06
Sample_040	0.015905	0.984095
Sample_041	0.999993	6.99999999997925e-06
Sample_042	0.999956	4.4000000000044e-05
Sample_043	0.999886	0.000113999999999947
Sample_044	0.033815	0.966185
Sample_045	0.3065	0.6935
Sample_046	0.999993	6.99999999997925e-06
Sample_047	0.059	0.941
Sample_048	0.003001	0.996999
Sample_049	0.999725	0.000275000000000025
Sample_050	0.122046	0.877954
Sample_051	0.005996	0.994004
Sample_052	0.000355	0.999645
Sample_053	0.101584	0.898416
Sample_054	0.8862	0.1138
Sample_055	0.990751	0.00924899999999995
Sample_056	0.94375	0.05625
Sample_057	0.003303	0.996697
Sample_058	0.142726	0.857274
Sample_059	0.05617	0.94383
Sample_060	0.158303	0.841697
Sample_061	0.950503	0.049497
Sample_062	0.006777	0.993223
Sample_063	0.000621	0.999379
Sample_064	0.028298	0.971702
Sample_065	0.001624	0.998376
Sample_066	0.999996	4.000000000004e-06
Sample_067	0.999998	1.99999999994649e-06
Sample_068	0.015395	0.984605
Sample_069	0.130542	0.869458
Sample_070	0.635803	0.364197
Sample_071	0.999839	0.000160999999999967
Sample_072	0.999995	5.00000000003276e-06
Sample_073	0.083004	0.916996
Sample_074	0.007819	0.992181
Sample_075	0.917102	0.082898
Sample_076	0.204411	0.795589
Sample_077	0.956312	0.0436879999999999
Sample_078	0.004186	0.995814
Sample_079	0.07322	0.92678
Sample_080	0.022236	0.977764
Sample_081	0.096519	0.903481
Sample_082	0.036987	0.963013
Sample_083	0.638269	0.361731
Sample_084	0.002512	0.997488
Sample_085	0.986275	0.013725
Sample_086	0.999993	6.99999999997925e-06
Sample_087	0.001617	0.998383
Sample_088	0.995	0.005
Sample_089	0.633777	0.366223
Sample_090	0.288311	0.711689
Sample_091	0.981087	0.018913
Sample_092	0.001352	0.998648
Sample_093	0.999078	0.000921999999999978
Sample_094	0.486327	0.513673
Sample_095	0.836599	0.163401
Sample_096	0.962968	0.037032
Sample_097	0.003757	0.996243
Sample_098	0.017144	0.982856
Sample_099	0.999994	5.99999999995049e-06
Sample_100	0.99967	0.000330000000000052
Sample_101	0.999995	5.00000000003276e-06
Sample_102	0.055739	0.944261
Sample_103	0.99849	0.00151000000000001
Sample_104	0.47142	0.52858
Sample_105	0.999999	1.00000000002876e-06
