SampleID	Confidence_Value_CD	Confidence_Value_UC
Sample_001	0.926322	0.073678
Sample_002	0	1
Sample_003	6.8e-05	0.999932
Sample_004	0.9779	0.0221
Sample_005	0	1
Sample_006	0.002983	0.997017
Sample_007	0	1
Sample_008	0.810828	0.189172
Sample_009	0.000269	0.999731
Sample_010	0.73879	0.26121
Sample_011	0.249833	0.750167
Sample_012	0	1
Sample_013	0.545119	0.454881
Sample_014	0.002248	0.997752
Sample_015	0.001606	0.998394
Sample_016	0.899512	0.100488
Sample_017	0	1
Sample_018	0	1
Sample_019	5.7e-05	0.999943
Sample_020	0	1
Sample_021	0	1
Sample_022	0.874517	0.125483
Sample_023	0	1
Sample_024	0	1
Sample_025	0.90629	0.09371
Sample_026	0.000716	0.999284
Sample_027	0.002601	0.997399
Sample_028	1.2e-05	0.999988
Sample_029	0	1
Sample_030	0.002334	0.997666
Sample_031	0.596388	0.403612
Sample_032	0.970327	0.0296729999999999
Sample_033	0.73028	0.26972
Sample_034	4.2e-05	0.999958
Sample_035	2e-06	0.999998
Sample_036	0.852322	0.147678
Sample_037	0.009153	0.990847
Sample_038	0	1
Sample_039	0.010328	0.989672
Sample_040	0.001212	0.998788
Sample_041	0	1
Sample_042	0.520233	0.479767
Sample_043	0	1
Sample_044	0.690684	0.309316
Sample_045	0	1
Sample_046	0	1
Sample_047	3e-05	0.99997
Sample_048	0	1
Sample_049	0.919199	0.080801
Sample_050	0.914605	0.085395
Sample_051	0	1
Sample_052	0.81808	0.18192
Sample_053	3.1e-05	0.999969
Sample_054	9.4e-05	0.999906
Sample_055	0.009683	0.990317
Sample_056	1.5e-05	0.999985
Sample_057	0.007995	0.992005
Sample_058	0.09932	0.90068
Sample_059	0.077233	0.922767
Sample_060	0.910095	0.089905
Sample_061	0.91081	0.08919
Sample_062	1.7e-05	0.999983
Sample_063	0	1
Sample_064	0.011708	0.988292
Sample_065	0.449477	0.550523
Sample_066	0.40527	0.59473
Sample_067	0.000893	0.999107
Sample_068	0.160387	0.839613
Sample_069	0.003357	0.996643
Sample_070	0	1
Sample_071	0.185209	0.814791
Sample_072	0.00934	0.99066
Sample_073	0.012374	0.987626
Sample_074	0.615198	0.384802
Sample_075	0.000969	0.999031
Sample_076	0	1
Sample_077	0.421526	0.578474
Sample_078	0.009719	0.990281
Sample_079	0.000972	0.999028
Sample_080	0.908757	0.091243
Sample_081	0.958148	0.041852
Sample_082	0.860626	0.139374
Sample_083	0.043894	0.956106
Sample_084	0	1
Sample_085	0.001185	0.998815
Sample_086	1.2e-05	0.999988
Sample_087	1e-06	0.999999
Sample_088	0	1
Sample_089	3.2e-05	0.999968
Sample_090	0.370153	0.629847
Sample_091	0	1
Sample_092	0.873312	0.126688
Sample_093	0.918143	0.081857
Sample_094	0	1
Sample_095	0.954522	0.045478
Sample_096	0.971784	0.028216
Sample_097	0.20389	0.79611
Sample_098	0	1
Sample_099	0.705058	0.294942
Sample_100	1e-06	0.999999
Sample_101	0.023372	0.976628
Sample_102	0.002864	0.997136
Sample_103	0	1
Sample_104	1e-06	0.999999
Sample_105	0	1
