SampleID	Confidence_Value_UC	Confidence_Value_nonIBD
Sample_001	0.999997	2.99999999997524e-06
Sample_002	1	0
Sample_003	0.045089	0.954911
Sample_004	0.694343	0.305657
Sample_005	0.793446	0.206554
Sample_006	0.253014	0.746986
Sample_007	0.990944	0.00905599999999995
Sample_008	0.011191	0.988809
Sample_009	1	0
Sample_010	0.683818	0.316182
Sample_011	8e-05	0.99992
Sample_012	0.294212	0.705788
Sample_013	0.999998	1.99999999994649e-06
Sample_014	0.989882	0.010118
Sample_015	0.048474	0.951526
Sample_016	0.999204	0.000796000000000019
Sample_017	0.014471	0.985529
Sample_018	0.040008	0.959992
Sample_019	1	0
Sample_020	0.415615	0.584385
Sample_021	0.129497	0.870503
Sample_022	0.682938	0.317062
Sample_023	1	0
Sample_024	0.113024	0.886976
Sample_025	0.296906	0.703094
Sample_026	0.028023	0.971977
Sample_027	0.128277	0.871723
Sample_028	0.271473	0.728527
Sample_029	0.841748	0.158252
Sample_030	0.026351	0.973649
Sample_031	0.995612	0.00438799999999995
Sample_032	0.924793	0.075207
Sample_033	0.990181	0.00981900000000002
Sample_034	0.322721	0.677279
Sample_035	0.278354	0.721646
Sample_036	0.994324	0.00567600000000001
Sample_037	0.004669	0.995331
Sample_038	0.682057	0.317943
Sample_039	0.999997	2.99999999997524e-06
Sample_040	0.015806	0.984194
Sample_041	1	0
Sample_042	1	0
Sample_043	1	0
Sample_044	0.000738	0.999262
Sample_045	0.022237	0.977763
Sample_046	1	0
Sample_047	0.99997	2.99999999999745e-05
Sample_048	0.014004	0.985996
Sample_049	0.688452	0.311548
Sample_050	0.057413	0.942587
Sample_051	0.001067	0.998933
Sample_052	0.22036	0.77964
Sample_053	0.879799	0.120201
Sample_054	0.345787	0.654213
Sample_055	1	0
Sample_056	0.587565	0.412435
Sample_057	0.86393	0.13607
Sample_058	0.002857	0.997143
Sample_059	0.019505	0.980495
Sample_060	0.035667	0.964333
Sample_061	0.988236	0.011764
Sample_062	0.07521	0.92479
Sample_063	0.006301	0.993699
Sample_064	0.767133	0.232867
Sample_065	0.009926	0.990074
Sample_066	1	0
Sample_067	0.970151	0.029849
Sample_068	0.943863	0.056137
Sample_069	1	0
Sample_070	0.999999	1.00000000002876e-06
Sample_071	0.013628	0.986372
Sample_072	0.999982	1.79999999999625e-05
Sample_073	0.019701	0.980299
Sample_074	0.249197	0.750803
Sample_075	1	0
Sample_076	0.616442	0.383558
Sample_077	0.755691	0.244309
Sample_078	0.007044	0.992956
Sample_079	0.104754	0.895246
Sample_080	0.106357	0.893643
Sample_081	0.970351	0.029649
Sample_082	0.997488	0.00251199999999996
Sample_083	0.062765	0.937235
Sample_084	0.015579	0.984421
Sample_085	0.99575	0.00424999999999998
Sample_086	0.999591	0.000408999999999993
Sample_087	0.550448	0.449552
Sample_088	0.361411	0.638589
Sample_089	0.999969	3.10000000000032e-05
Sample_090	0.22843	0.77157
Sample_091	0.999999	1.00000000002876e-06
Sample_092	0.029117	0.970883
Sample_093	1	0
Sample_094	0.990214	0.00978599999999996
Sample_095	0.434573	0.565427
Sample_096	0.940222	0.059778
Sample_097	0.6342	0.3658
Sample_098	0.074101	0.925899
Sample_099	1	0
Sample_100	1	0
Sample_101	1	0
Sample_102	0.178579	0.821421
Sample_103	1	0
Sample_104	0.593287	0.406713
Sample_105	1	0
