SampleID	Confidence_Value_CD	Confidence_Value_UC
Sample_001	0.894668	0.105332
Sample_002	1	0
Sample_003	1	0
Sample_004	1	0
Sample_005	1	0
Sample_006	0.596634	0.403366
Sample_007	1	0
Sample_008	1	0
Sample_009	1	0
Sample_010	0.876854	0.123146
Sample_011	0.562122	0.437878
Sample_012	0.596634	0.403366
Sample_013	1	0
Sample_014	1	0
Sample_015	1	0
Sample_016	0.814615	0.185385
Sample_017	1	0
Sample_018	0.596634	0.403366
Sample_019	0.596634	0.403366
Sample_020	0.782569	0.217431
Sample_021	0.801749	0.198251
Sample_022	1	0
Sample_023	1	0
Sample_024	1	0
Sample_025	1	0
Sample_026	1	0
Sample_027	1	0
Sample_028	1	0
Sample_029	0.329711	0.670289
Sample_030	0.778197	0.221803
Sample_031	1	0
Sample_032	0.615213	0.384787
Sample_033	1	0
Sample_034	1	0
Sample_035	0.441706	0.558294
Sample_036	0.705995	0.294005
Sample_037	0.71907	0.28093
Sample_038	0.894644	0.105356
Sample_039	1	0
Sample_040	1	0
Sample_041	1	0
Sample_042	0.27799	0.72201
Sample_043	1	0
Sample_044	1	0
Sample_045	1	0
Sample_046	1	0
Sample_047	0.815321	0.184679
Sample_048	0	1
Sample_049	1	0
Sample_050	1	0
Sample_051	1	0
Sample_052	0.822931	0.177069
Sample_053	1	0
Sample_054	1	0
Sample_055	1	0
Sample_056	1	0
Sample_057	0.697687	0.302313
Sample_058	1	0
Sample_059	1	0
Sample_060	1	0
Sample_061	1	0
Sample_062	1	0
Sample_063	0.62318	0.37682
Sample_064	1	0
Sample_065	1	0
Sample_066	0.364874	0.635126
Sample_067	0.494325	0.505675
Sample_068	1	0
Sample_069	0.635673	0.364327
Sample_070	0.742782	0.257218
Sample_071	1	0
Sample_072	0.221181	0.778819
Sample_073	0.611346	0.388654
Sample_074	0.537991	0.462009
Sample_075	1	0
Sample_076	1	0
Sample_077	0.645587	0.354413
Sample_078	0.83947	0.16053
Sample_079	1	0
Sample_080	0.70498	0.29502
Sample_081	0.181661	0.818339
Sample_082	0.249763	0.750237
Sample_083	1	0
Sample_084	0.596634	0.403366
Sample_085	0.279545	0.720455
Sample_086	1	0
Sample_087	1	0
Sample_088	1	0
Sample_089	0.860008	0.139992
Sample_090	1	0
Sample_091	1	0
Sample_092	0.388842	0.611158
Sample_093	1	0
Sample_094	1	0
Sample_095	1	0
Sample_096	1	0
Sample_097	0.596634	0.403366
Sample_098	0.76761	0.23239
Sample_099	1	0
Sample_100	1	0
Sample_101	0.499119	0.500881
Sample_102	0.443869	0.556131
Sample_103	1	0
Sample_104	0.862641	0.137359
Sample_105	1	0
