SampleID	Confidence_Value_CD	Confidence_Value_UC
Sample_001	0.110124	0.889876
Sample_002	1	0
Sample_003	1	0
Sample_004	1	0
Sample_005	0.590889	0.409111
Sample_006	0.398426	0.601574
Sample_007	0	1
Sample_008	0	1
Sample_009	0.469244	0.530756
Sample_010	0.130762	0.869238
Sample_011	0.219668	0.780332
Sample_012	0	1
Sample_013	0	1
Sample_014	1	0
Sample_015	0.837284	0.162716
Sample_016	1	0
Sample_017	0	1
Sample_018	0.352136	0.647864
Sample_019	1	0
Sample_020	0	1
Sample_021	1	0
Sample_022	0.38113	0.61887
Sample_023	0	1
Sample_024	0	1
Sample_025	0	1
Sample_026	0	1
Sample_027	0	1
Sample_028	0	1
Sample_029	0.386667	0.613333
Sample_030	0	1
Sample_031	0	1
Sample_032	1	0
Sample_033	0	1
Sample_034	0	1
Sample_035	0.856598	0.143402
Sample_036	1	0
Sample_037	0.264373	0.735627
Sample_038	0	1
Sample_039	0	1
Sample_040	0	1
Sample_041	0.355895	0.644105
Sample_042	0	1
Sample_043	0	1
Sample_044	0	1
Sample_045	0	1
Sample_046	1	0
Sample_047	0	1
Sample_048	0	1
Sample_049	0.834593	0.165407
Sample_050	1	0
Sample_051	0.280307	0.719693
Sample_052	0	1
Sample_053	0.489691	0.510309
Sample_054	0	1
Sample_055	0	1
Sample_056	0	1
Sample_057	0.249124	0.750876
Sample_058	0.259085	0.740915
Sample_059	0	1
Sample_060	0	1
Sample_061	0	1
Sample_062	0.16072	0.83928
Sample_063	0	1
Sample_064	0	1
Sample_065	0.471667	0.528333
Sample_066	0	1
Sample_067	0.166322	0.833678
Sample_068	0.664502	0.335498
Sample_069	0	1
Sample_070	0.586173	0.413827
Sample_071	0	1
Sample_072	1	0
Sample_073	1	0
Sample_074	0	1
Sample_075	0	1
Sample_076	0	1
Sample_077	0	1
Sample_078	0	1
Sample_079	0	1
Sample_080	0	1
Sample_081	0	1
Sample_082	0	1
Sample_083	0	1
Sample_084	0	1
Sample_085	0	1
Sample_086	0	1
Sample_087	0	1
Sample_088	1	0
Sample_089	0	1
Sample_090	0	1
Sample_091	0	1
Sample_092	0	1
Sample_093	0	1
Sample_094	0	1
Sample_095	0.172641	0.827359
Sample_096	0	1
Sample_097	0	1
Sample_098	0	1
Sample_099	0	1
Sample_100	0	1
Sample_101	0.425868	0.574132
Sample_102	1	0
Sample_103	0	1
Sample_104	0	1
Sample_105	0	1
